lexer.c:In function ‘yyalloc’:
lexer.c:In function ‘yy_fatal_error’:
lexer.c:In function ‘yyfree’:
lexer.c:In function ‘yy_get_next_buffer’:
lexer.c:In function ‘yyrealloc’:
lexer.c:warning: unused parameter ‘yyscanner’ [-Wunused-parameter]
lexer.c:warning: unused parameter ‘yyscanner’ [-Wunused-parameter]
lexer.c:warning: unused parameter ‘yyscanner’ [-Wunused-parameter]
lexer.c:warning: unused parameter ‘yyscanner’ [-Wunused-parameter]
parser.y:warning: 19 shift/reduce conflicts [-Wconflicts-sr]
physical-lexer.c:In function ‘yylex’:
physical-lexer.c:warning: variable ‘yylval’ set but not used [-Wunused-but-set-variable]
