
-- TCF009 : OCTO345 : % as leading character in M labels and routine names

CREATE FUNCTION TCF009() RETURNS VARCHAR AS $$%TCF009^%TESTPERCENT;
select TCF009() from names;

CREATE FUNCTION TCF009() RETURNS VARCHAR AS $$%^%;
select TCF009() from names;
TCF009
SUCCESS
SUCCESS
SUCCESS
SUCCESS
SUCCESS
SUCCESS
(6 rows)
TCF009
SUCCESS
SUCCESS
SUCCESS
SUCCESS
SUCCESS
SUCCESS
(6 rows)
