
-- TOJ05 : OCTO312 : Use WHERE clause to optimize LEFT JOIN (just like INNER JOIN)
CREATE FUNCTION CURR_TIMESTAMP(VARCHAR) RETURNS NUMERIC AS $$^TIMESTAMP;

SELECT A.ORDER1_ID, A.PATIENT_ID, A.OBJECT_OF_ORDER
FROM ORDER1 A
LEFT JOIN PATIENT E ON (A.PATIENT_ID=E.PATIENT_ID)
LEFT JOIN ORDER_STATUS C ON (A.STATUS=C.ORDER_STATUS_ID)
LEFT JOIN ORDER_ORDER_ACTIONS B ON ( A.ORDER1_ID = B.ORDER1_ID AND A.CURRENT_ACTION=B.ORDER_ORDER_ACTIONS_ID)
LEFT JOIN NEW_PERSON D ON (B.SIGNED_BY = D.NEW_PERSON_ID)
LEFT JOIN DISPLAY_GROUP F ON (A.TO=F.DISPLAY_GROUP_ID)
WHERE
(
   A.PATIENT_ID>0
   and A.CURRENT_ACTION>0
   AND A.STATUS in (5,6,15)
   AND ( A.STOP_DATE>=CURR_TIMESTAMP("V")::NUMERIC OR A.STOP_DATE IS NULL )
   AND E.NAME NOT LIKE "ZZ%"
   AND E.CURRENT_MOVEMENT>0
);

ORDER1_ID|PATIENT_ID|OBJECT_OF_ORDER
(0 rows)
# Verify cross reference plans did get generated
_ydboctoX*.m
# Verify key fixing optimization happened by looking at the FOR loops in the generated M code
;; ---------------------------------------------------------

octoPlan0(cursorId)
    DO octoPlan1(cursorId)
    DO octoPlan2(cursorId)
    QUIT

octoPlan1(cursorId)
    DO:'$DATA(^%ydboctoocto("xref_status","ORDER1","STATUS")) ^%ydboctoXl1ZF8QChmrFXG5Ip2jah7D(cursorId)
--
    . SET %ydboctoexpr=$GET(%ydboctocursor(cursorId,"parameters",5))
    SET %ydboctoin1(%ydboctoexpr)=""
    SET %ydboctoin1="" FOR  DO:$DATA(%ydboctoin1(%ydboctoin1))  SET %ydboctoin1=$ORDER(%ydboctoin1(%ydboctoin1)) QUIT:""=%ydboctoin1
--
    . SET %ydboctocursor(cursorId,"keys",1,"ORDER1","STATUS")=%ydboctoexpr IF '$ZYISSQLNULL(%ydboctocursor(cursorId,"keys",1,"ORDER1","STATUS")) IF $DATA(^%ydboctoxref("ORDER1","STATUS",%ydboctocursor(cursorId,"keys",1,"ORDER1","STATUS"))) DO
    . . SET %ydboctocursor(cursorId,"keys",1,"ORDER1","ORDER1_ID")=0
    . . FOR  SET %ydboctocursor(cursorId,"keys",1,"ORDER1","ORDER1_ID")=$ORDER(^%ydboctoxref("ORDER1","STATUS",%ydboctocursor(cursorId,"keys",1,"ORDER1","STATUS"),%ydboctocursor(cursorId,"keys",1,"ORDER1","ORDER1_ID"))) QUIT:('(%ydboctocursor(cursorId,"keys",1,"ORDER1","ORDER1_ID"))!(%ydboctocursor(cursorId,"keys",1,"ORDER1","ORDER1_ID")=""))  DO
--
    QUIT

octoPlan2(cursorId)
    DO:'$DATA(^%ydboctoocto("xref_status","ORDER1","STATUS")) ^%ydboctoXl1ZF8QChmrFXG5Ip2jah7D(cursorId)
--
    . SET %ydboctoexpr=$GET(%ydboctocursor(cursorId,"parameters",5))
    SET %ydboctoin1(%ydboctoexpr)=""
    SET %ydboctoin1="" FOR  DO:$DATA(%ydboctoin1(%ydboctoin1))  SET %ydboctoin1=$ORDER(%ydboctoin1(%ydboctoin1)) QUIT:""=%ydboctoin1
--
    . SET %ydboctocursor(cursorId,"keys",1,"ORDER1","STATUS")=%ydboctoexpr IF '$ZYISSQLNULL(%ydboctocursor(cursorId,"keys",1,"ORDER1","STATUS")) IF $DATA(^%ydboctoxref("ORDER1","STATUS",%ydboctocursor(cursorId,"keys",1,"ORDER1","STATUS"))) DO
    . . SET %ydboctocursor(cursorId,"keys",1,"ORDER1","ORDER1_ID")=0
    . . FOR  SET %ydboctocursor(cursorId,"keys",1,"ORDER1","ORDER1_ID")=$ORDER(^%ydboctoxref("ORDER1","STATUS",%ydboctocursor(cursorId,"keys",1,"ORDER1","STATUS"),%ydboctocursor(cursorId,"keys",1,"ORDER1","ORDER1_ID"))) QUIT:('(%ydboctocursor(cursorId,"keys",1,"ORDER1","ORDER1_ID"))!(%ydboctocursor(cursorId,"keys",1,"ORDER1","ORDER1_ID")=""))  DO
