select * from t1;
create table t1(a int, b int);
select * from t1;
drop table t1;
select * from t1;
ERROR:  Unknown table: T1
ERROR:  Error with syntax near (line 1, column 14):
ERROR:  select * from t1;
ERROR:                ^^
ERROR:  Error parsing statement: select * from t1;
  a   |  b   
------+------
    1 |    2
   42 | 9001
 1337 |   42
(3 rows)

ERROR:  Unknown table: T1
ERROR:  Error with syntax near (line 1, column 14):
ERROR:  select * from t1;
ERROR:                ^^
ERROR:  Error parsing statement: select * from t1;
