
-- Below is a simpler version of a Squirrel SQL query found in TSSLAC01.sql
-- The difference is that this one produces some output so at least we can validate the output.
-- Below does an ORDER BY using a column from the pg_catalog.pg_class table

SELECT   *
FROM     (
                   SELECT    n.nspname,
                             c.relname,
                             row_number() AS attnum
                   FROM      pg_catalog.pg_namespace n
                   JOIN      pg_catalog.pg_class c
                   ON        (c.relnamespace = n.oid)) c
ORDER BY nspname,
         relname desc

NSPNAME|RELNAME|ATTNUM
public|USERS|14
public|PG_USER|25
public|PG_TYPE|16
public|PG_SETTINGS|22
public|PG_ROLES|24
public|PG_PROC|19
public|PG_NAMESPACE|15
public|PG_DESCRIPTION|18
public|PG_DATABASE|23
public|PG_CLASS|17
public|PG_CATALOG.PG_USER|13
public|PG_CATALOG.PG_TYPE|3
public|PG_CATALOG.PG_SETTINGS|10
public|PG_CATALOG.PG_ROLES|12
public|PG_CATALOG.PG_PROC|7
public|PG_CATALOG.PG_NAMESPACE|2
public|PG_CATALOG.PG_DESCRIPTION|5
public|PG_CATALOG.PG_DATABASE|11
public|PG_CATALOG.PG_CLASS|4
public|PG_CATALOG.PG_ATTRIBUTE|8
public|PG_CATALOG.PG_ATTRDEF|9
public|PG_ATTRIBUTE|20
public|PG_ATTRDEF|21
public|OCTOONEROWTABLE|1
public|NAMESWITHAGES|27
public|NAMES|26
public|INFORMATION_SCHEMA.TABLES|6
(27 rows)
